\relax 
\providecommand\hyper@newdestlabel[2]{}
\providecommand\HyperFirstAtBeginDocument{\AtBeginDocument}
\HyperFirstAtBeginDocument{\ifx\hyper@anchor\@undefined
\global\let\oldcontentsline\contentsline
\gdef\contentsline#1#2#3#4{\oldcontentsline{#1}{#2}{#3}}
\global\let\oldnewlabel\newlabel
\gdef\newlabel#1#2{\newlabelxx{#1}#2}
\gdef\newlabelxx#1#2#3#4#5#6{\oldnewlabel{#1}{{#2}{#3}}}
\AtEndDocument{\ifx\hyper@anchor\@undefined
\let\contentsline\oldcontentsline
\let\newlabel\oldnewlabel
\fi}
\fi}
\global\let\hyper@last\relax 
\gdef\HyperFirstAtBeginDocument#1{#1}
\providecommand\HyField@AuxAddToFields[1]{}
\providecommand\HyField@AuxAddToCoFields[2]{}
\@writefile{toc}{\contentsline {chapter}{Notation}{i}{Doc-Start}}
\@writefile{toc}{\contentsline {chapter}{\numberline {1}Introduction}{1}{chapter.1}}
\@writefile{lof}{\addvspace {10\p@ }}
\@writefile{lot}{\addvspace {10\p@ }}
\@writefile{toc}{\contentsline {section}{\numberline {1.1}Motivation}{1}{section.1.1}}
\@writefile{toc}{\contentsline {chapter}{\numberline {2}Sets}{2}{chapter.2}}
\@writefile{lof}{\addvspace {10\p@ }}
\@writefile{lot}{\addvspace {10\p@ }}
\@writefile{toc}{\contentsline {section}{\numberline {2.1}Sets}{2}{section.2.1}}
\@writefile{toc}{\contentsline {section}{\numberline {2.2}New Sets from Old Sets}{2}{section.2.2}}
\@writefile{toc}{\contentsline {chapter}{\numberline {3}Relations}{4}{chapter.3}}
\@writefile{lof}{\addvspace {10\p@ }}
\@writefile{lot}{\addvspace {10\p@ }}
\@writefile{toc}{\contentsline {section}{\numberline {3.1}Functions and Relations}{4}{section.3.1}}
\@writefile{toc}{\contentsline {section}{\numberline {3.2}New Functions from Old Functions}{5}{section.3.2}}
\newlabel{1}{{3.2.11}{7}{}{subsection.3.2.11}{}}
\newlabel{2}{{3.2.12}{7}{}{subsection.3.2.12}{}}
\@writefile{toc}{\contentsline {section}{\numberline {3.3}Equivalence Relations, Congruences and Partitions}{8}{section.3.3}}
\@writefile{toc}{\contentsline {subsection}{\numberline {3.3.1}\unskip \nobreakspace  {}Equivalence Relation.\nobreakspace  {}}{8}{subsection.3.3.1}}
\@writefile{toc}{\contentsline {section}{\numberline {3.4}Congruence Relation}{9}{section.3.4}}
\@writefile{toc}{\contentsline {subsection}{\numberline {3.4.6}\unskip \nobreakspace  {}Partitions.\nobreakspace  {}}{10}{subsection.3.4.6}}
\@writefile{toc}{\contentsline {chapter}{\numberline {4}Binary Operations.}{13}{chapter.4}}
\@writefile{lof}{\addvspace {10\p@ }}
\@writefile{lot}{\addvspace {10\p@ }}
\@writefile{toc}{\contentsline {section}{\numberline {4.1}Binary Operation}{13}{section.4.1}}
\@writefile{toc}{\contentsline {section}{\numberline {4.2}Tables}{13}{section.4.2}}
\@writefile{toc}{\contentsline {section}{\numberline {4.3}Isomorphic Binary Structures}{14}{section.4.3}}
\newlabel{bo}{{4.3.3}{14}{}{subsection.4.3.3}{}}
\@writefile{toc}{\contentsline {chapter}{\numberline {5}Groups}{16}{chapter.5}}
\@writefile{lof}{\addvspace {10\p@ }}
\@writefile{lot}{\addvspace {10\p@ }}
\@writefile{toc}{\contentsline {section}{\numberline {5.1}Elementary Properties of Groups}{17}{section.5.1}}
\@writefile{toc}{\contentsline {section}{\numberline {5.2}Finite Groups and Group Tables (Cayley Tables)}{17}{section.5.2}}
\@writefile{toc}{\contentsline {subsection}{\numberline {5.2.1}\unskip \nobreakspace  {}Properties of a Table.\nobreakspace  {}}{18}{subsection.5.2.1}}
\@writefile{toc}{\contentsline {section}{\numberline {5.3}Subgroups}{18}{section.5.3}}
\newlabel{klein}{{5.3.9}{19}{}{subsection.5.3.9}{}}
\@writefile{lof}{\contentsline {figure}{\numberline {5.1}{\ignorespaces Subgroup Diagram\relax }}{19}{figure.caption.2}}
\providecommand*\caption@xref[2]{\@setref\relax\@undefined{#1}}
\newlabel{fig:tim1}{{5.1}{19}{Subgroup Diagram\relax }{figure.caption.2}{}}
\newlabel{sub}{{5.3.10}{19}{The Subgroup Test}{subsection.5.3.10}{}}
\@writefile{toc}{\contentsline {section}{\numberline {5.4}Cyclic Subgroups}{20}{section.5.4}}
\@writefile{toc}{\contentsline {section}{\numberline {5.5}Cyclic Groups}{21}{section.5.5}}
\@writefile{toc}{\contentsline {section}{\numberline {5.6}Subgroups of Finite Cyclic Groups }{22}{section.5.6}}
\newlabel{gen}{{5.6.3}{23}{}{subsection.5.6.3}{}}
\@writefile{lof}{\contentsline {figure}{\numberline {5.2}{\ignorespaces Subgroup Diagram\relax }}{23}{figure.caption.3}}
\newlabel{fig:tim2}{{5.2}{23}{Subgroup Diagram\relax }{figure.caption.3}{}}
\@writefile{toc}{\contentsline {section}{\numberline {5.7}Direct Products and Finitely Generated Abelian Groups}{24}{section.5.7}}
\@writefile{toc}{\contentsline {section}{\numberline {5.8}Cosets and Theorem of Lagrange}{25}{section.5.8}}
\@writefile{toc}{\contentsline {section}{\numberline {5.9}The Theorem of Lagrange}{26}{section.5.9}}
\@writefile{toc}{\contentsline {section}{\numberline {5.10}Homomorphism}{27}{section.5.10}}
\@writefile{toc}{\contentsline {section}{\numberline {5.11}Properties of Homomorphisms}{29}{section.5.11}}
\@writefile{toc}{\contentsline {section}{\numberline {5.12}Factor Groups}{30}{section.5.12}}
\newlabel{thm031}{{5.12.1}{30}{}{subsection.5.12.1}{}}
\newlabel{cor038}{{5.12.8}{31}{}{subsection.5.12.8}{}}
\@writefile{toc}{\contentsline {section}{\numberline {5.13}The Fundamental Homomorphism Theorem}{31}{section.5.13}}
\newlabel{The Fundamental Homomorphism Theorem}{{5.13.2}{32}{The Fundamental Homomorphism Theorem}{subsection.5.13.2}{}}
\@writefile{toc}{\contentsline {section}{\numberline {5.14}Normal Subgroups and Inner Automorphisms}{32}{section.5.14}}
\@writefile{toc}{\contentsline {chapter}{\numberline {6}Rings and Fields}{34}{chapter.6}}
\@writefile{lof}{\addvspace {10\p@ }}
\@writefile{lot}{\addvspace {10\p@ }}
\@writefile{toc}{\contentsline {section}{\numberline {6.1}Rings}{34}{section.6.1}}
\@writefile{toc}{\contentsline {section}{\numberline {6.2}Fields}{36}{section.6.2}}
\@writefile{toc}{\contentsline {section}{\numberline {6.3}Integral Domains}{37}{section.6.3}}
