\relax 
\providecommand\hyper@newdestlabel[2]{}
\providecommand\HyperFirstAtBeginDocument{\AtBeginDocument}
\HyperFirstAtBeginDocument{\ifx\hyper@anchor\@undefined
\global\let\oldcontentsline\contentsline
\gdef\contentsline#1#2#3#4{\oldcontentsline{#1}{#2}{#3}}
\global\let\oldnewlabel\newlabel
\gdef\newlabel#1#2{\newlabelxx{#1}#2}
\gdef\newlabelxx#1#2#3#4#5#6{\oldnewlabel{#1}{{#2}{#3}}}
\AtEndDocument{\ifx\hyper@anchor\@undefined
\let\contentsline\oldcontentsline
\let\newlabel\oldnewlabel
\fi}
\fi}
\global\let\hyper@last\relax 
\gdef\HyperFirstAtBeginDocument#1{#1}
\providecommand\HyField@AuxAddToFields[1]{}
\providecommand\HyField@AuxAddToCoFields[2]{}
\@writefile{toc}{\contentsline {chapter}{Notation}{i}{chapter*.1}}
\@writefile{toc}{\contentsline {chapter}{\numberline {1}Introduction}{1}{chapter.1}}
\@writefile{lof}{\addvspace {10\p@ }}
\@writefile{lot}{\addvspace {10\p@ }}
\@writefile{toc}{\contentsline {section}{\numberline {1.1}Motivation}{1}{section.1.1}}
\@writefile{toc}{\contentsline {chapter}{\numberline {2}Sets}{2}{chapter.2}}
\@writefile{lof}{\addvspace {10\p@ }}
\@writefile{lot}{\addvspace {10\p@ }}
\@writefile{toc}{\contentsline {section}{\numberline {2.1}Sets}{2}{section.2.1}}
\@writefile{toc}{\contentsline {section}{\numberline {2.2}New Sets From Old Sets}{2}{section.2.2}}
\@writefile{toc}{\contentsline {chapter}{\numberline {3}Relations}{4}{chapter.3}}
\@writefile{lof}{\addvspace {10\p@ }}
\@writefile{lot}{\addvspace {10\p@ }}
\@writefile{toc}{\contentsline {section}{\numberline {3.1}Functions And Relations}{4}{section.3.1}}
\@writefile{toc}{\contentsline {section}{\numberline {3.2}New Functions From Old Functions}{5}{section.3.2}}
\@writefile{toc}{\contentsline {section}{\numberline {3.3}Equivalence Relations, Congruences And Partitions}{8}{section.3.3}}
\@writefile{toc}{\contentsline {subsection}{\numberline {3.3.1}\unskip \nobreakspace  {}Equivalence Relation.\nobreakspace  {}}{8}{subsection.3.3.1}}
\@writefile{toc}{\contentsline {section}{\numberline {3.4}Congruence Relation}{9}{section.3.4}}
\@writefile{toc}{\contentsline {subsection}{\numberline {3.4.6}\unskip \nobreakspace  {}Partitions.\nobreakspace  {}}{10}{subsection.3.4.6}}
\@writefile{toc}{\contentsline {section}{\numberline {3.5}Binary Operations.}{12}{section.3.5}}
\@writefile{toc}{\contentsline {subsection}{\numberline {3.5.1}\unskip \nobreakspace  {}Isomorphic Binary Structures.\nobreakspace  {}}{12}{subsection.3.5.1}}
\@writefile{toc}{\contentsline {chapter}{\numberline {4}The Second Squared Chapter}{13}{chapter.4}}
\@writefile{lof}{\addvspace {10\p@ }}
\@writefile{lot}{\addvspace {10\p@ }}
\citation{*}
\bibstyle{myabbrvnat}
\bibdata{references}
\bibcite{AD92}{{1}{1992}{{Adolphson et~al.}}{{Adolphson, Sperber, and Tretkoff}}}
\bibcite{aitkin2009statistical}{{2}{2009}{{Aitkin et~al.}}{{Aitkin, Francis, Hinde, and Darnell}}}
\bibcite{Beardon}{{3}{2006}{{Beardon}}{{}}}
\bibcite{mcdthesis}{{4}{1999}{{Davey}}{{}}}
\bibcite{latex}{{5}{1986}{{Lamport}}{{}}}
\bibcite{MacKay86}{{6}{a}{{MacKay}}{{}}}
\bibcite{MacKay94:fe}{{7}{b}{{MacKay}}{{}}}
\bibcite{mnc4pfoutdated}{{8}{}{{MacKay and Neal}}{{}}}
\bibcite{Shannon48}{{9}{1948}{{Shannon}}{{}}}
\bibcite{shannon44}{{10}{1993}{{Shannon}}{{}}}
\bibcite{Webots}{{11}{}{{Webots}}{{}}}
\bibcite{WikBlackScholes}{{12}{}{{Wikipedia}}{{}}}
\@writefile{toc}{\contentsline {chapter}{References}{15}{chapter*.4}}
